%!PS-Adobe-2.0 EPSF-2.0
%%BoundingBox: 212 211 475 453
%%HiResBoundingBox: 212.000000 211.500000 474.500000 452.500000
%Produced by poppler pdftops version: 0.24.5 (http://poppler.freedesktop.org)
%%Creator: Draw
%%LanguageLevel: 2
%%DocumentMedia: 612x792 612 792 0 () ()
%%EndComments
% EPSF created by ps2eps 1.68
%%BeginProlog
save
countdictstack
mark
newpath
/showpage {} def
/setpagedevice {pop} def
%%EndProlog
%%Page 1 1
%%BeginProlog
%%BeginResource: procset xpdf 3.00 0
%%Copyright: Copyright 1996-2011 Glyph & Cog, LLC
/xpdf 75 dict def xpdf begin
% PDF special state
/pdfDictSize 15 def
/pdfSetup {
  /setpagedevice where {
    pop 2 dict begin
      /Policies 1 dict dup begin /PageSize 6 def end def
      { /Duplex true def } if
    currentdict end setpagedevice
  } {
    pop
  } ifelse
} def
/pdfSetupPaper {
  2 array astore
  /setpagedevice where {
    pop 2 dict begin
      /PageSize exch def
      /ImagingBBox null def
    currentdict end setpagedevice
  } {
    pop
  } ifelse
} def
/pdfStartPage {
  pdfDictSize dict begin
  /pdfFillCS [] def
  /pdfFillXform {} def
  /pdfStrokeCS [] def
  /pdfStrokeXform {} def
  /pdfFill [0] def
  /pdfStroke [0] def
  /pdfFillOP false def
  /pdfStrokeOP false def
  /pdfLastFill false def
  /pdfLastStroke false def
  /pdfTextMat [1 0 0 1 0 0] def
  /pdfFontSize 0 def
  /pdfCharSpacing 0 def
  /pdfTextRender 0 def
  /pdfPatternCS false def
  /pdfTextRise 0 def
  /pdfWordSpacing 0 def
  /pdfHorizScaling 1 def
  /pdfTextClipPath [] def
} def
/pdfEndPage { end } def
% PDF color state
/cs { /pdfFillXform exch def dup /pdfFillCS exch def
      setcolorspace } def
/CS { /pdfStrokeXform exch def dup /pdfStrokeCS exch def
      setcolorspace } def
/sc { pdfLastFill not { pdfFillCS setcolorspace } if
      dup /pdfFill exch def aload pop pdfFillXform setcolor
     /pdfLastFill true def /pdfLastStroke false def } def
/SC { pdfLastStroke not { pdfStrokeCS setcolorspace } if
      dup /pdfStroke exch def aload pop pdfStrokeXform setcolor
     /pdfLastStroke true def /pdfLastFill false def } def
/op { /pdfFillOP exch def
      pdfLastFill { pdfFillOP setoverprint } if } def
/OP { /pdfStrokeOP exch def
      pdfLastStroke { pdfStrokeOP setoverprint } if } def
/fCol {
  pdfLastFill not {
    pdfFillCS setcolorspace
    pdfFill aload pop pdfFillXform setcolor
    pdfFillOP setoverprint
    /pdfLastFill true def /pdfLastStroke false def
  } if
} def
/sCol {
  pdfLastStroke not {
    pdfStrokeCS setcolorspace
    pdfStroke aload pop pdfStrokeXform setcolor
    pdfStrokeOP setoverprint
    /pdfLastStroke true def /pdfLastFill false def
  } if
} def
% build a font
/pdfMakeFont {
  4 3 roll findfont
  4 2 roll matrix scale makefont
  dup length dict begin
    { 1 index /FID ne { def } { pop pop } ifelse } forall
    /Encoding exch def
    currentdict
  end
  definefont pop
} def
/pdfMakeFont16 {
  exch findfont
  dup length dict begin
    { 1 index /FID ne { def } { pop pop } ifelse } forall
    /WMode exch def
    currentdict
  end
  definefont pop
} def
% graphics state operators
/q { gsave pdfDictSize dict begin } def
/Q {
  end grestore
  /pdfLastFill where {
    pop
    pdfLastFill {
      pdfFillOP setoverprint
    } {
      pdfStrokeOP setoverprint
    } ifelse
  } if
} def
/cm { concat } def
/d { setdash } def
/i { setflat } def
/j { setlinejoin } def
/J { setlinecap } def
/M { setmiterlimit } def
/w { setlinewidth } def
% path segment operators
/m { moveto } def
/l { lineto } def
/c { curveto } def
/re { 4 2 roll moveto 1 index 0 rlineto 0 exch rlineto
      neg 0 rlineto closepath } def
/h { closepath } def
% path painting operators
/S { sCol stroke } def
/Sf { fCol stroke } def
/f { fCol fill } def
/f* { fCol eofill } def
% clipping operators
/W { clip newpath } def
/W* { eoclip newpath } def
/Ws { strokepath clip newpath } def
% text state operators
/Tc { /pdfCharSpacing exch def } def
/Tf { dup /pdfFontSize exch def
      dup pdfHorizScaling mul exch matrix scale
      pdfTextMat matrix concatmatrix dup 4 0 put dup 5 0 put
      exch findfont exch makefont setfont } def
/Tr { /pdfTextRender exch def } def
/Tp { /pdfPatternCS exch def } def
/Ts { /pdfTextRise exch def } def
/Tw { /pdfWordSpacing exch def } def
/Tz { /pdfHorizScaling exch def } def
% text positioning operators
/Td { pdfTextMat transform moveto } def
/Tm { /pdfTextMat exch def } def
% text string operators
/xyshow where {
  pop
  /xyshow2 {
    dup length array
    0 2 2 index length 1 sub {
      2 index 1 index 2 copy get 3 1 roll 1 add get
      pdfTextMat dtransform
      4 2 roll 2 copy 6 5 roll put 1 add 3 1 roll dup 4 2 roll put
    } for
    exch pop
    xyshow
  } def
}{
  /xyshow2 {
    currentfont /FontType get 0 eq {
      0 2 3 index length 1 sub {
        currentpoint 4 index 3 index 2 getinterval show moveto
        2 copy get 2 index 3 2 roll 1 add get
        pdfTextMat dtransform rmoveto
      } for
    } {
      0 1 3 index length 1 sub {
        currentpoint 4 index 3 index 1 getinterval show moveto
        2 copy 2 mul get 2 index 3 2 roll 2 mul 1 add get
        pdfTextMat dtransform rmoveto
      } for
    } ifelse
    pop pop
  } def
} ifelse
/cshow where {
  pop
  /xycp {
    0 3 2 roll
    {
      pop pop currentpoint 3 2 roll
      1 string dup 0 4 3 roll put false charpath moveto
      2 copy get 2 index 2 index 1 add get
      pdfTextMat dtransform rmoveto
      2 add
    } exch cshow
    pop pop
  } def
}{
  /xycp {
    currentfont /FontType get 0 eq {
      0 2 3 index length 1 sub {
        currentpoint 4 index 3 index 2 getinterval false charpath moveto
        2 copy get 2 index 3 2 roll 1 add get
        pdfTextMat dtransform rmoveto
      } for
    } {
      0 1 3 index length 1 sub {
        currentpoint 4 index 3 index 1 getinterval false charpath moveto
        2 copy 2 mul get 2 index 3 2 roll 2 mul 1 add get
        pdfTextMat dtransform rmoveto
      } for
    } ifelse
    pop pop
  } def
} ifelse
/Tj {
  fCol
  0 pdfTextRise pdfTextMat dtransform rmoveto
  currentpoint 4 2 roll
  pdfTextRender 1 and 0 eq {
    2 copy xyshow2
  } if
  pdfTextRender 3 and dup 1 eq exch 2 eq or {
    3 index 3 index moveto
    2 copy
    currentfont /FontType get 3 eq { fCol } { sCol } ifelse
    xycp currentpoint stroke moveto
  } if
  pdfTextRender 4 and 0 ne {
    4 2 roll moveto xycp
    /pdfTextClipPath [ pdfTextClipPath aload pop
      {/moveto cvx}
      {/lineto cvx}
      {/curveto cvx}
      {/closepath cvx}
    pathforall ] def
    currentpoint newpath moveto
  } {
    pop pop pop pop
  } ifelse
  0 pdfTextRise neg pdfTextMat dtransform rmoveto
} def
/TJm { 0.001 mul pdfFontSize mul pdfHorizScaling mul neg 0
       pdfTextMat dtransform rmoveto } def
/TJmV { 0.001 mul pdfFontSize mul neg 0 exch
        pdfTextMat dtransform rmoveto } def
/Tclip { pdfTextClipPath cvx exec clip newpath
         /pdfTextClipPath [] def } def
/Tclip* { pdfTextClipPath cvx exec eoclip newpath
         /pdfTextClipPath [] def } def
% Level 2/3 image operators
/pdfImBuf 100 string def
/pdfImStr {
  2 copy exch length lt {
    2 copy get exch 1 add exch
  } {
    ()
  } ifelse
} def
/skipEOD {
  { currentfile pdfImBuf readline
    not { pop exit } if
    (%-EOD-) eq { exit } if } loop
} def
/pdfIm { image skipEOD } def
/pdfImM { fCol imagemask skipEOD } def
/pr { 2 index 2 index 3 2 roll putinterval 4 add } def
/pdfImClip {
  gsave
  0 2 4 index length 1 sub {
    dup 4 index exch 2 copy
    get 5 index div put
    1 add 3 index exch 2 copy
    get 3 index div put
  } for
  pop pop rectclip
} def
/pdfImClipEnd { grestore } def
% shading operators
/colordelta {
  false 0 1 3 index length 1 sub {
    dup 4 index exch get 3 index 3 2 roll get sub abs 0.004 gt {
      pop true
    } if
  } for
  exch pop exch pop
} def
/funcCol { func n array astore } def
/funcSH {
  dup 0 eq {
    true
  } {
    dup 6 eq {
      false
    } {
      4 index 4 index funcCol dup
      6 index 4 index funcCol dup
      3 1 roll colordelta 3 1 roll
      5 index 5 index funcCol dup
      3 1 roll colordelta 3 1 roll
      6 index 8 index funcCol dup
      3 1 roll colordelta 3 1 roll
      colordelta or or or
    } ifelse
  } ifelse
  {
    1 add
    4 index 3 index add 0.5 mul exch 4 index 3 index add 0.5 mul exch
    6 index 6 index 4 index 4 index 4 index funcSH
    2 index 6 index 6 index 4 index 4 index funcSH
    6 index 2 index 4 index 6 index 4 index funcSH
    5 3 roll 3 2 roll funcSH pop pop
  } {
    pop 3 index 2 index add 0.5 mul 3 index  2 index add 0.5 mul
    funcCol sc
    dup 4 index exch mat transform m
    3 index 3 index mat transform l
    1 index 3 index mat transform l
    mat transform l pop pop h f*
  } ifelse
} def
/axialCol {
  dup 0 lt {
    pop t0
  } {
    dup 1 gt {
      pop t1
    } {
      dt mul t0 add
    } ifelse
  } ifelse
  func n array astore
} def
/axialSH {
  dup 0 eq {
    true
  } {
    dup 8 eq {
      false
    } {
      2 index axialCol 2 index axialCol colordelta
    } ifelse
  } ifelse
  {
    1 add 3 1 roll 2 copy add 0.5 mul
    dup 4 3 roll exch 4 index axialSH
    exch 3 2 roll axialSH
  } {
    pop 2 copy add 0.5 mul
    axialCol sc
    exch dup dx mul x0 add exch dy mul y0 add
    3 2 roll dup dx mul x0 add exch dy mul y0 add
    dx abs dy abs ge {
      2 copy yMin sub dy mul dx div add yMin m
      yMax sub dy mul dx div add yMax l
      2 copy yMax sub dy mul dx div add yMax l
      yMin sub dy mul dx div add yMin l
      h f*
    } {
      exch 2 copy xMin sub dx mul dy div add xMin exch m
      xMax sub dx mul dy div add xMax exch l
      exch 2 copy xMax sub dx mul dy div add xMax exch l
      xMin sub dx mul dy div add xMin exch l
      h f*
    } ifelse
  } ifelse
} def
/radialCol {
  dup t0 lt {
    pop t0
  } {
    dup t1 gt {
      pop t1
    } if
  } ifelse
  func n array astore
} def
/radialSH {
  dup 0 eq {
    true
  } {
    dup 8 eq {
      false
    } {
      2 index dt mul t0 add radialCol
      2 index dt mul t0 add radialCol colordelta
    } ifelse
  } ifelse
  {
    1 add 3 1 roll 2 copy add 0.5 mul
    dup 4 3 roll exch 4 index radialSH
    exch 3 2 roll radialSH
  } {
    pop 2 copy add 0.5 mul dt mul t0 add
    radialCol sc
    encl {
      exch dup dx mul x0 add exch dup dy mul y0 add exch dr mul r0 add
      0 360 arc h
      dup dx mul x0 add exch dup dy mul y0 add exch dr mul r0 add
      360 0 arcn h f
    } {
      2 copy
      dup dx mul x0 add exch dup dy mul y0 add exch dr mul r0 add
      a1 a2 arcn
      dup dx mul x0 add exch dup dy mul y0 add exch dr mul r0 add
      a2 a1 arcn h
      dup dx mul x0 add exch dup dy mul y0 add exch dr mul r0 add
      a1 a2 arc
      dup dx mul x0 add exch dup dy mul y0 add exch dr mul r0 add
      a2 a1 arc h f
    } ifelse
  } ifelse
} def
end
%%EndResource
%%EndProlog
%%BeginSetup
xpdf begin
false pdfSetup
%%EndSetup
%%Page: 1 1
%%PageMedia: 612x792
%%PageBoundingBox: 0 0 612 792
%%BeginPageSetup
%%PageOrientation: Portrait
612 792 pdfSetupPaper
pdfStartPage
0 0 612 792 re W
%%EndPageSetup
[] 0 d
1 i
0 j
0 J
10 M
1 w
/DeviceGray {} cs
[0] sc
/DeviceGray {} CS
[0] SC
false op
false OP
{} settransfer
q
0.1 w
q
0 0 612 792 re
W*
/DeviceRGB {} CS
[0 0 0] SC
q
2.0093 w
2 J
0 j
10 M
341.5 212.9 m
341.5 446.7 l
S
Q
/DeviceRGB {} cs
[0 0 0] sc
341.5 452.4 m
344.6 446.3 l
338.5 446.3 l
341.5 452.4 l
h
f*
/DeviceRGB {} cs
[1 0 0] sc
345.5 386.9 m
349.3 386.9 l
350.9 385.3 l
350.9 381.5 l
349.3 379.9 l
345.5 379.9 l
343.9 381.5 l
343.9 385.3 l
345.5 386.9 l
h
f*
/DeviceRGB {} CS
[1 0 0] SC
q
0.7358 w
2 J
0 j
7.66129 M
345.5 386.9 m
349.3 386.9 l
350.9 385.3 l
350.9 381.5 l
349.3 379.9 l
345.5 379.9 l
343.9 381.5 l
343.9 385.3 l
345.5 386.9 l
h
S
Q
/DeviceRGB {} cs
[1 0 0] sc
300.2 358.8 m
304 358.8 l
305.6 357.2 l
305.6 353.4 l
304 351.8 l
300.2 351.8 l
298.6 353.4 l
298.6 357.2 l
300.2 358.8 l
h
f*
/DeviceRGB {} CS
[1 0 0] SC
q
0.7358 w
2 J
0 j
7.66129 M
300.2 358.8 m
304 358.8 l
305.6 357.2 l
305.6 353.4 l
304 351.8 l
300.2 351.8 l
298.6 353.4 l
298.6 357.2 l
300.2 358.8 l
h
S
Q
/DeviceRGB {} cs
[1 0 0] sc
312.2 315.8 m
316 315.8 l
317.7 314.2 l
317.7 310.4 l
316 308.7 l
312.2 308.7 l
310.6 310.4 l
310.6 314.2 l
312.2 315.8 l
h
f*
/DeviceRGB {} CS
[1 0 0] SC
q
0.7358 w
2 J
0 j
7.66129 M
312.2 315.8 m
316 315.8 l
317.7 314.2 l
317.7 310.4 l
316 308.7 l
312.2 308.7 l
310.6 310.4 l
310.6 314.2 l
312.2 315.8 l
h
S
Q
/DeviceRGB {} cs
[1 0 0] sc
354.2 278.3 m
358 278.3 l
359.6 276.7 l
359.6 272.9 l
358 271.2 l
354.2 271.2 l
352.6 272.9 l
352.6 276.7 l
354.2 278.3 l
h
f*
/DeviceRGB {} CS
[1 0 0] SC
q
0.7358 w
2 J
0 j
7.66129 M
354.2 278.3 m
358 278.3 l
359.6 276.7 l
359.6 272.9 l
358 271.2 l
354.2 271.2 l
352.6 272.9 l
352.6 276.7 l
354.2 278.3 l
h
S
Q
/DeviceRGB {} cs
[1 0 0] sc
321.2 383.3 m
325 383.3 l
326.6 381.7 l
326.6 377.9 l
325 376.2 l
321.2 376.2 l
319.6 377.9 l
319.6 381.7 l
321.2 383.3 l
h
f*
/DeviceRGB {} CS
[1 0 0] SC
q
0.7358 w
2 J
0 j
7.66129 M
321.2 383.3 m
325 383.3 l
326.6 381.7 l
326.6 377.9 l
325 376.2 l
321.2 376.2 l
319.6 377.9 l
319.6 381.7 l
321.2 383.3 l
h
S
Q
/DeviceRGB {} cs
[1 0 0] sc
282.2 333.8 m
286 333.8 l
287.6 332.2 l
287.6 328.4 l
286 326.7 l
282.2 326.7 l
280.6 328.4 l
280.6 332.2 l
282.2 333.8 l
h
f*
/DeviceRGB {} CS
[1 0 0] SC
q
0.7358 w
2 J
0 j
7.66129 M
282.2 333.8 m
286 333.8 l
287.6 332.2 l
287.6 328.4 l
286 326.7 l
282.2 326.7 l
280.6 328.4 l
280.6 332.2 l
282.2 333.8 l
h
S
Q
/DeviceRGB {} cs
[1 0 0] sc
315.3 275.3 m
319 275.3 l
320.7 273.7 l
320.7 269.9 l
319 268.3 l
315.3 268.3 l
313.7 269.9 l
313.7 273.7 l
315.3 275.3 l
h
f*
/DeviceRGB {} CS
[1 0 0] SC
q
0.7358 w
2 J
0 j
7.66129 M
315.3 275.3 m
319 275.3 l
320.7 273.7 l
320.7 269.9 l
319 268.3 l
315.3 268.3 l
313.7 269.9 l
313.7 273.7 l
315.3 275.3 l
h
S
Q
/DeviceRGB {} cs
[1 0 0] sc
354.2 351.8 m
358 351.8 l
359.6 350.2 l
359.6 346.4 l
358 344.7 l
354.2 344.7 l
352.6 346.4 l
352.6 350.2 l
354.2 351.8 l
h
f*
/DeviceRGB {} CS
[1 0 0] SC
q
0.7358 w
2 J
0 j
7.66129 M
354.2 351.8 m
358 351.8 l
359.6 350.2 l
359.6 346.4 l
358 344.7 l
354.2 344.7 l
352.6 346.4 l
352.6 350.2 l
354.2 351.8 l
h
S
Q
/DeviceRGB {} cs
[0 0 1] sc
425.2 352.8 m
429 352.8 l
430.6 351.2 l
430.6 347.4 l
429 345.7 l
425.2 345.7 l
423.6 347.4 l
423.6 351.2 l
425.2 352.8 l
h
f*
/DeviceRGB {} CS
[0 0 1] SC
q
0.7358 w
2 J
0 j
7.66129 M
425.2 352.8 m
429 352.8 l
430.6 351.2 l
430.6 347.4 l
429 345.7 l
425.2 345.7 l
423.6 347.4 l
423.6 351.2 l
425.2 352.8 l
h
S
Q
/DeviceRGB {} cs
[0 0 1] sc
414.2 257.3 m
418 257.3 l
419.6 255.7 l
419.6 251.9 l
418 250.2 l
414.2 250.2 l
412.6 251.9 l
412.6 255.7 l
414.2 257.3 l
h
f*
/DeviceRGB {} CS
[0 0 1] SC
q
0.7358 w
2 J
0 j
7.66129 M
414.2 257.3 m
418 257.3 l
419.6 255.7 l
419.6 251.9 l
418 250.2 l
414.2 250.2 l
412.6 251.9 l
412.6 255.7 l
414.2 257.3 l
h
S
Q
/DeviceRGB {} cs
[0 0 1] sc
237.2 342.8 m
241 342.8 l
242.6 341.1 l
242.6 337.4 l
241 335.7 l
237.2 335.7 l
235.6 337.4 l
235.6 341.1 l
237.2 342.8 l
h
f*
/DeviceRGB {} CS
[0 0 1] SC
q
0.7358 w
2 J
0 j
7.66129 M
237.2 342.8 m
241 342.8 l
242.6 341.1 l
242.6 337.4 l
241 335.7 l
237.2 335.7 l
235.6 337.4 l
235.6 341.1 l
237.2 342.8 l
h
S
Q
/DeviceRGB {} cs
[0 0 1] sc
356.2 228.3 m
360 228.3 l
361.6 226.7 l
361.6 222.9 l
360 221.2 l
356.2 221.2 l
354.6 222.9 l
354.6 226.7 l
356.2 228.3 l
h
f*
/DeviceRGB {} CS
[0 0 1] SC
q
0.7358 w
2 J
0 j
7.66129 M
356.2 228.3 m
360 228.3 l
361.6 226.7 l
361.6 222.9 l
360 221.2 l
356.2 221.2 l
354.6 222.9 l
354.6 226.7 l
356.2 228.3 l
h
S
Q
/DeviceRGB {} cs
[0 0 1] sc
432.2 294.8 m
436 294.8 l
437.6 293.2 l
437.6 289.4 l
436 287.7 l
432.2 287.7 l
430.6 289.4 l
430.6 293.2 l
432.2 294.8 l
h
f*
/DeviceRGB {} CS
[0 0 1] SC
q
0.7358 w
2 J
0 j
7.66129 M
432.2 294.8 m
436 294.8 l
437.6 293.2 l
437.6 289.4 l
436 287.7 l
432.2 287.7 l
430.6 289.4 l
430.6 293.2 l
432.2 294.8 l
h
S
Q
/DeviceRGB {} cs
[0 0 1] sc
279.7 252.3 m
283.5 252.3 l
285.1 250.7 l
285.1 246.9 l
283.5 245.3 l
279.7 245.3 l
278.1 246.9 l
278.1 250.7 l
279.7 252.3 l
h
f*
/DeviceRGB {} CS
[0 0 1] SC
q
0.7358 w
2 J
0 j
7.66129 M
279.7 252.3 m
283.5 252.3 l
285.1 250.7 l
285.1 246.9 l
283.5 245.3 l
279.7 245.3 l
278.1 246.9 l
278.1 250.7 l
279.7 252.3 l
h
S
Q
/DeviceRGB {} cs
[0 0 1] sc
255.2 290.3 m
259 290.3 l
260.6 288.7 l
260.6 284.9 l
259 283.2 l
255.2 283.2 l
253.6 284.9 l
253.6 288.7 l
255.2 290.3 l
h
f*
/DeviceRGB {} CS
[0 0 1] SC
q
0.7358 w
2 J
0 j
7.66129 M
255.2 290.3 m
259 290.3 l
260.6 288.7 l
260.6 284.9 l
259 283.2 l
255.2 283.2 l
253.6 284.9 l
253.6 288.7 l
255.2 290.3 l
h
S
Q
/DeviceRGB {} cs
[0 0 1] sc
259.7 410.2 m
263.5 410.2 l
265.1 408.6 l
265.1 404.9 l
263.5 403.2 l
259.7 403.2 l
258.1 404.9 l
258.1 408.6 l
259.7 410.2 l
h
f*
/DeviceRGB {} CS
[0 0 1] SC
q
0.7358 w
2 J
0 j
7.66129 M
259.7 410.2 m
263.5 410.2 l
265.1 408.6 l
265.1 404.9 l
263.5 403.2 l
259.7 403.2 l
258.1 404.9 l
258.1 408.6 l
259.7 410.2 l
h
S
Q
/DeviceRGB {} cs
[1 0 0] sc
377.5 320.9 m
381.3 320.9 l
382.9 319.2 l
382.9 315.5 l
381.3 313.9 l
377.5 313.9 l
375.9 315.5 l
375.9 319.2 l
377.5 320.9 l
h
f*
/DeviceRGB {} CS
[1 0 0] SC
q
0.7358 w
2 J
0 j
7.66129 M
377.5 320.9 m
381.3 320.9 l
382.9 319.2 l
382.9 315.5 l
381.3 313.9 l
377.5 313.9 l
375.9 315.5 l
375.9 319.2 l
377.5 320.9 l
h
S
Q
/DeviceRGB {} cs
[1 0 0] sc
347.5 310.4 m
351.2 310.4 l
352.9 308.8 l
352.9 305 l
351.2 303.4 l
347.5 303.4 l
345.9 305 l
345.9 308.8 l
347.5 310.4 l
h
f*
/DeviceRGB {} CS
[1 0 0] SC
q
0.7358 w
2 J
0 j
7.66129 M
347.5 310.4 m
351.2 310.4 l
352.9 308.8 l
352.9 305 l
351.2 303.4 l
347.5 303.4 l
345.9 305 l
345.9 308.8 l
347.5 310.4 l
h
S
Q
/DeviceRGB {} cs
[0 0 1] sc
370 407.9 m
373.7 407.9 l
375.4 406.3 l
375.4 402.5 l
373.7 400.9 l
370 400.9 l
368.4 402.5 l
368.4 406.3 l
370 407.9 l
h
f*
/DeviceRGB {} CS
[0 0 1] SC
q
0.7358 w
2 J
0 j
7.66129 M
370 407.9 m
373.7 407.9 l
375.4 406.3 l
375.4 402.5 l
373.7 400.9 l
370 400.9 l
368.4 402.5 l
368.4 406.3 l
370 407.9 l
h
S
Q
/DeviceRGB {} CS
[0 0 0] SC
q
1.24519 w
2 J
0 j
10 M
340.6 401.1 m
341.1 401.1 341.5 401.1 341.9 401.1 c
S
Q
q
1.24519 w
2 J
0 j
10 M
343.2 401.1 m
343.6 401.1 344 401.1 344.4 401 c
S
Q
q
1.24519 w
2 J
0 j
10 M
345.7 401 m
346.1 401 346.5 400.9 346.9 400.9 c
S
Q
q
1.24519 w
2 J
0 j
10 M
348.2 400.8 m
348.6 400.7 349 400.7 349.4 400.6 c
S
Q
q
1.24519 w
2 J
0 j
10 M
350.6 400.5 m
351 400.5 351.5 400.4 351.9 400.3 c
S
Q
q
1.24519 w
2 J
0 j
10 M
353.1 400.2 m
353.5 400.1 353.9 400 354.3 399.9 c
S
Q
q
1.24519 w
2 J
0 j
10 M
355.6 399.7 m
356 399.6 356.4 399.6 356.8 399.5 c
S
Q
q
1.24519 w
2 J
0 j
10 M
358 399.2 m
358.4 399.1 358.8 399 359.2 398.9 c
S
Q
q
1.24519 w
2 J
0 j
10 M
360.5 398.6 m
360.9 398.5 361.2 398.4 361.6 398.3 c
S
Q
q
1.24519 w
2 J
0 j
10 M
362.8 397.9 m
363.2 397.8 363.6 397.7 364 397.6 c
S
Q
q
1.24519 w
2 J
0 j
10 M
365.2 397.2 m
365.6 397 366 396.9 366.4 396.8 c
S
Q
q
1.24519 w
2 J
0 j
10 M
367.6 396.3 m
368 396.2 368.3 396.1 368.7 395.9 c
S
Q
q
1.24519 w
2 J
0 j
10 M
369.9 395.4 m
370.3 395.3 370.7 395.1 371 395 c
S
Q
q
1.24519 w
2 J
0 j
10 M
372.2 394.4 m
372.6 394.3 372.9 394.1 373.3 393.9 c
S
Q
q
1.24519 w
2 J
0 j
10 M
374.4 393.4 m
374.8 393.2 375.2 393 375.5 392.8 c
S
Q
q
1.24519 w
2 J
0 j
10 M
376.6 392.2 m
377 392 377.4 391.8 377.7 391.6 c
S
Q
q
1.24519 w
2 J
0 j
10 M
378.8 391 m
379.2 390.8 379.5 390.6 379.9 390.4 c
S
Q
q
1.24519 w
2 J
0 j
10 M
380.9 389.7 m
381.3 389.5 381.7 389.3 382 389 c
S
Q
q
1.24519 w
2 J
0 j
10 M
383 388.3 m
383.4 388.1 383.7 387.9 384.1 387.6 c
S
Q
q
1.24519 w
2 J
0 j
10 M
385.1 386.9 m
385.4 386.6 385.7 386.4 386.1 386.1 c
S
Q
q
1.24519 w
2 J
0 j
10 M
387 385.4 m
387.4 385.1 387.7 384.9 388 384.6 c
S
Q
q
1.24519 w
2 J
0 j
10 M
389 383.8 m
389.3 383.5 389.6 383.2 389.9 383 c
S
Q
q
1.24519 w
2 J
0 j
10 M
390.9 382.1 m
391.2 381.9 391.5 381.6 391.8 381.3 c
S
Q
q
1.24519 w
2 J
0 j
10 M
392.7 380.4 m
393 380.2 393.3 379.8 393.6 379.6 c
S
Q
q
1.24519 w
2 J
0 j
10 M
394.4 378.7 m
394.7 378.4 395 378.1 395.3 377.7 c
S
Q
q
1.24519 w
2 J
0 j
10 M
396.1 376.8 m
396.4 376.5 396.7 376.2 396.9 375.9 c
S
Q
q
1.24519 w
2 J
0 j
10 M
397.8 374.9 m
398 374.6 398.3 374.3 398.5 374 c
S
Q
q
1.24519 w
2 J
0 j
10 M
399.3 373 m
399.6 372.7 399.8 372.3 400.1 372 c
S
Q
q
1.24519 w
2 J
0 j
10 M
400.8 371 m
401 370.7 401.3 370.3 401.5 370 c
S
Q
q
1.24519 w
2 J
0 j
10 M
402.2 369 m
402.5 368.6 402.7 368.2 402.9 367.9 c
S
Q
q
1.24519 w
2 J
0 j
10 M
403.6 366.9 m
403.8 366.5 404 366.2 404.2 365.8 c
S
Q
q
1.24519 w
2 J
0 j
10 M
404.8 364.7 m
405.1 364.3 405.3 364 405.5 363.6 c
S
Q
q
1.24519 w
2 J
0 j
10 M
406.1 362.5 m
406.3 362.2 406.5 361.8 406.6 361.4 c
S
Q
q
1.24519 w
2 J
0 j
10 M
407.2 360.3 m
407.4 359.9 407.5 359.5 407.7 359.2 c
S
Q
q
1.24519 w
2 J
0 j
10 M
408.2 358 m
408.4 357.6 408.6 357.3 408.7 356.9 c
S
Q
q
1.24519 w
2 J
0 j
10 M
409.2 355.7 m
409.4 355.4 409.5 355 409.7 354.6 c
S
Q
q
1.24519 w
2 J
0 j
10 M
410.1 353.4 m
410.3 353 410.4 352.6 410.5 352.2 c
S
Q
q
1.24519 w
2 J
0 j
10 M
410.9 351 m
411.1 350.6 411.2 350.2 411.3 349.9 c
S
Q
q
1.24519 w
2 J
0 j
10 M
411.7 348.7 m
411.8 348.3 411.9 347.9 412 347.5 c
S
Q
q
1.24519 w
2 J
0 j
10 M
412.4 346.3 m
412.4 345.9 412.6 345.5 412.6 345.1 c
S
Q
q
1.24519 w
2 J
0 j
10 M
412.9 343.9 m
413 343.4 413.1 343 413.2 342.6 c
S
Q
q
1.24519 w
2 J
0 j
10 M
413.4 341.4 m
413.5 341 413.6 340.6 413.7 340.2 c
S
Q
q
1.24519 w
2 J
0 j
10 M
413.9 338.9 m
413.9 338.5 414 338.1 414.1 337.7 c
S
Q
q
1.24519 w
2 J
0 j
10 M
414.2 336.5 m
414.3 336.1 414.3 335.7 414.4 335.3 c
S
Q
q
1.24519 w
2 J
0 j
10 M
414.5 334 m
414.5 333.6 414.6 333.2 414.6 332.8 c
S
Q
q
1.24519 w
2 J
0 j
10 M
414.7 331.5 m
414.7 331.1 414.8 330.7 414.8 330.3 c
S
Q
q
1.24519 w
2 J
0 j
10 M
414.8 329 m
414.9 328.6 414.9 328.2 414.9 327.7 c
S
Q
q
1.24519 w
2 J
0 j
10 M
414.9 326.5 m
414.9 326.4 414.9 326.2 414.9 326.1 c
414.9 325.8 414.9 325.5 414.9 325.2 c
S
Q
q
1.24519 w
2 J
0 j
10 M
414.9 323.9 m
414.9 323.5 414.8 323.1 414.8 322.7 c
S
Q
q
1.24519 w
2 J
0 j
10 M
414.7 321.4 m
414.7 321 414.7 320.6 414.7 320.2 c
S
Q
q
1.24519 w
2 J
0 j
10 M
414.6 318.9 m
414.5 318.5 414.5 318.1 414.5 317.7 c
S
Q
q
1.24519 w
2 J
0 j
10 M
414.3 316.5 m
414.3 316.1 414.2 315.6 414.2 315.2 c
S
Q
q
1.24519 w
2 J
0 j
10 M
414 314 m
413.9 313.6 413.9 313.2 413.8 312.8 c
S
Q
q
1.24519 w
2 J
0 j
10 M
413.6 311.6 m
413.5 311.1 413.4 310.7 413.3 310.3 c
S
Q
q
1.24519 w
2 J
0 j
10 M
413.1 309.1 m
413 308.7 412.9 308.3 412.8 307.9 c
S
Q
q
1.24519 w
2 J
0 j
10 M
412.5 306.7 m
412.4 306.3 412.3 305.8 412.2 305.4 c
S
Q
q
1.24519 w
2 J
0 j
10 M
411.9 304.2 m
411.8 303.8 411.6 303.4 411.5 303.1 c
S
Q
q
1.24519 w
2 J
0 j
10 M
411.2 301.9 m
411 301.5 410.9 301.1 410.8 300.7 c
S
Q
q
1.24519 w
2 J
0 j
10 M
410.3 299.5 m
410.2 299.1 410.1 298.7 409.9 298.3 c
S
Q
q
1.24519 w
2 J
0 j
10 M
409.5 297.2 m
409.3 296.8 409.2 296.4 409 296 c
S
Q
q
1.24519 w
2 J
0 j
10 M
408.5 294.9 m
408.4 294.5 408.2 294.1 408 293.7 c
S
Q
q
1.24519 w
2 J
0 j
10 M
407.5 292.6 m
407.3 292.2 407.1 291.9 406.9 291.5 c
S
Q
q
1.24519 w
2 J
0 j
10 M
406.4 290.4 m
406.2 290 406 289.6 405.8 289.2 c
S
Q
q
1.24519 w
2 J
0 j
10 M
405.2 288.1 m
405 287.8 404.8 287.4 404.6 287.1 c
S
Q
q
1.24519 w
2 J
0 j
10 M
403.9 286 m
403.7 285.6 403.5 285.3 403.3 284.9 c
S
Q
q
1.24519 w
2 J
0 j
10 M
402.6 283.9 m
402.4 283.5 402.2 283.2 401.9 282.8 c
S
Q
q
1.24519 w
2 J
0 j
10 M
401.2 281.8 m
401 281.5 400.7 281.2 400.5 280.8 c
S
Q
q
1.24519 w
2 J
0 j
10 M
399.7 279.8 m
399.5 279.5 399.2 279.2 399 278.8 c
S
Q
q
1.24519 w
2 J
0 j
10 M
398.2 277.9 m
397.9 277.5 397.7 277.2 397.4 276.9 c
S
Q
q
1.24519 w
2 J
0 j
10 M
396.6 276 m
396.3 275.6 396 275.3 395.7 275 c
S
Q
q
1.24519 w
2 J
0 j
10 M
394.9 274.1 m
394.6 273.8 394.3 273.5 394 273.2 c
S
Q
q
1.24519 w
2 J
0 j
10 M
393.2 272.3 m
392.9 272 392.6 271.7 392.3 271.4 c
S
Q
q
1.24519 w
2 J
0 j
10 M
391.4 270.6 m
391.1 270.3 390.8 270 390.4 269.7 c
S
Q
q
1.24519 w
2 J
0 j
10 M
389.5 268.9 m
389.2 268.6 388.9 268.4 388.6 268.1 c
S
Q
q
1.24519 w
2 J
0 j
10 M
387.6 267.3 m
387.3 267.1 387 266.8 386.6 266.5 c
S
Q
q
1.24519 w
2 J
0 j
10 M
385.6 265.8 m
385.3 265.5 384.9 265.3 384.6 265 c
S
Q
q
1.24519 w
2 J
0 j
10 M
383.6 264.3 m
383.3 264.1 382.9 263.8 382.6 263.6 c
S
Q
q
1.24519 w
2 J
0 j
10 M
381.5 262.9 m
381.2 262.7 380.8 262.5 380.5 262.3 c
S
Q
q
1.24519 w
2 J
0 j
10 M
379.4 261.6 m
379.1 261.4 378.7 261.2 378.3 261 c
S
Q
q
1.24519 w
2 J
0 j
10 M
377.3 260.4 m
376.9 260.2 376.5 260 376.2 259.8 c
S
Q
q
1.24519 w
2 J
0 j
10 M
375.1 259.2 m
374.7 259 374.3 258.8 373.9 258.6 c
S
Q
q
1.24519 w
2 J
0 j
10 M
372.8 258.1 m
372.4 257.9 372 257.8 371.7 257.6 c
S
Q
q
1.24519 w
2 J
0 j
10 M
370.5 257.1 m
370.1 256.9 369.8 256.8 369.4 256.6 c
S
Q
q
1.24519 w
2 J
0 j
10 M
368.2 256.1 m
367.8 256 367.4 255.9 367.1 255.7 c
S
Q
q
1.24519 w
2 J
0 j
10 M
365.9 255.3 m
365.5 255.1 365.1 255 364.7 254.9 c
S
Q
q
1.24519 w
2 J
0 j
10 M
363.5 254.5 m
363.1 254.4 362.7 254.3 362.3 254.2 c
S
Q
q
1.24519 w
2 J
0 j
10 M
361.1 253.8 m
360.7 253.7 360.3 253.6 359.9 253.5 c
S
Q
q
1.24519 w
2 J
0 j
10 M
358.7 253.2 m
358.3 253.1 357.9 253 357.5 252.9 c
S
Q
q
1.24519 w
2 J
0 j
10 M
356.3 252.7 m
355.8 252.6 355.4 252.5 355 252.4 c
S
Q
q
1.24519 w
2 J
0 j
10 M
353.8 252.2 m
353.4 252.1 352.9 252.1 352.5 252 c
S
Q
q
1.24519 w
2 J
0 j
10 M
351.3 251.8 m
350.9 251.8 350.5 251.7 350.1 251.7 c
S
Q
q
1.24519 w
2 J
0 j
10 M
348.9 251.5 m
348.5 251.5 348 251.5 347.6 251.4 c
S
Q
q
1.24519 w
2 J
0 j
10 M
346.4 251.3 m
346 251.3 345.6 251.3 345.1 251.2 c
S
Q
q
1.24519 w
2 J
0 j
10 M
343.9 251.2 m
343.5 251.2 343 251.1 342.6 251.1 c
S
Q
q
1.24519 w
2 J
0 j
10 M
341.3 251.1 m
341.1 251.1 340.9 251.1 340.6 251.1 c
340.4 251.1 340.3 251.1 340.1 251.1 c
S
Q
q
1.24519 w
2 J
0 j
10 M
338.8 251.1 m
338.4 251.1 338 251.2 337.5 251.2 c
S
Q
q
1.24519 w
2 J
0 j
10 M
336.3 251.2 m
335.9 251.3 335.5 251.3 335 251.3 c
S
Q
q
1.24519 w
2 J
0 j
10 M
333.8 251.4 m
333.4 251.5 333 251.5 332.6 251.5 c
S
Q
q
1.24519 w
2 J
0 j
10 M
331.3 251.7 m
330.9 251.7 330.5 251.8 330.1 251.8 c
S
Q
q
1.24519 w
2 J
0 j
10 M
328.9 252 m
328.5 252.1 328.1 252.1 327.7 252.2 c
S
Q
q
1.24519 w
2 J
0 j
10 M
326.4 252.4 m
326 252.5 325.6 252.6 325.2 252.7 c
S
Q
q
1.24519 w
2 J
0 j
10 M
323.9 252.9 m
323.5 253 323.1 253.1 322.7 253.2 c
S
Q
q
1.24519 w
2 J
0 j
10 M
321.5 253.5 m
321.1 253.6 320.7 253.7 320.3 253.8 c
S
Q
q
1.24519 w
2 J
0 j
10 M
319.1 254.1 m
318.7 254.2 318.3 254.4 317.9 254.5 c
S
Q
q
1.24519 w
2 J
0 j
10 M
316.7 254.8 m
316.3 255 315.9 255.1 315.6 255.2 c
S
Q
q
1.24519 w
2 J
0 j
10 M
314.4 255.7 m
314 255.8 313.6 255.9 313.2 256.1 c
S
Q
q
1.24519 w
2 J
0 j
10 M
312 256.6 m
311.6 256.7 311.3 256.9 310.9 257 c
S
Q
q
1.24519 w
2 J
0 j
10 M
309.7 257.5 m
309.3 257.7 309 257.9 308.6 258 c
S
Q
q
1.24519 w
2 J
0 j
10 M
307.5 258.6 m
307.1 258.7 306.7 258.9 306.4 259.1 c
S
Q
q
1.24519 w
2 J
0 j
10 M
305.3 259.7 m
304.9 259.9 304.5 260.1 304.2 260.3 c
S
Q
q
1.24519 w
2 J
0 j
10 M
303.1 260.9 m
302.7 261.1 302.3 261.3 302 261.5 c
S
Q
q
1.24519 w
2 J
0 j
10 M
300.9 262.2 m
300.6 262.4 300.2 262.6 299.9 262.8 c
S
Q
q
1.24519 w
2 J
0 j
10 M
298.8 263.5 m
298.5 263.8 298.1 264 297.8 264.2 c
S
Q
q
1.24519 w
2 J
0 j
10 M
296.8 265 m
296.4 265.2 296.1 265.4 295.8 265.7 c
S
Q
q
1.24519 w
2 J
0 j
10 M
294.8 266.4 m
294.5 266.7 294.1 266.9 293.8 267.2 c
S
Q
q
1.24519 w
2 J
0 j
10 M
292.8 268 m
292.5 268.3 292.2 268.5 291.9 268.8 c
S
Q
q
1.24519 w
2 J
0 j
10 M
290.9 269.6 m
290.6 269.9 290.3 270.2 290 270.5 c
S
Q
q
1.24519 w
2 J
0 j
10 M
289.1 271.3 m
288.8 271.6 288.5 271.9 288.2 272.2 c
S
Q
q
1.24519 w
2 J
0 j
10 M
287.3 273.1 m
287 273.4 286.8 273.7 286.5 274 c
S
Q
q
1.24519 w
2 J
0 j
10 M
285.6 274.9 m
285.4 275.2 285.1 275.5 284.8 275.8 c
S
Q
q
1.24519 w
2 J
0 j
10 M
284 276.8 m
283.7 277.1 283.4 277.4 283.2 277.7 c
S
Q
q
1.24519 w
2 J
0 j
10 M
282.4 278.7 m
282.1 279 281.9 279.4 281.7 279.7 c
S
Q
q
1.24519 w
2 J
0 j
10 M
280.9 280.7 m
280.6 281 280.4 281.4 280.1 281.7 c
S
Q
q
1.24519 w
2 J
0 j
10 M
279.4 282.7 m
279.2 283.1 279 283.4 278.8 283.7 c
S
Q
q
1.24519 w
2 J
0 j
10 M
278.1 284.8 m
277.9 285.2 277.6 285.5 277.4 285.9 c
S
Q
q
1.24519 w
2 J
0 j
10 M
276.8 287 m
276.6 287.3 276.3 287.7 276.2 288 c
S
Q
q
1.24519 w
2 J
0 j
10 M
275.6 289.1 m
275.4 289.5 275.2 289.8 275 290.2 c
S
Q
q
1.24519 w
2 J
0 j
10 M
274.4 291.3 m
274.2 291.7 274 292.1 273.9 292.5 c
S
Q
q
1.24519 w
2 J
0 j
10 M
273.3 293.6 m
273.1 294 273 294.3 272.8 294.7 c
S
Q
q
1.24519 w
2 J
0 j
10 M
272.3 295.9 m
272.2 296.2 272 296.6 271.9 297 c
S
Q
q
1.24519 w
2 J
0 j
10 M
271.4 298.2 m
271.2 298.6 271.1 299 271 299.4 c
S
Q
q
1.24519 w
2 J
0 j
10 M
270.6 300.5 m
270.4 301 270.3 301.4 270.2 301.7 c
S
Q
q
1.24519 w
2 J
0 j
10 M
269.8 302.9 m
269.7 303.3 269.5 303.7 269.4 304.1 c
S
Q
q
1.24519 w
2 J
0 j
10 M
269.1 305.3 m
269 305.7 268.9 306.1 268.8 306.5 c
S
Q
q
1.24519 w
2 J
0 j
10 M
268.5 307.7 m
268.4 308.1 268.3 308.5 268.2 308.9 c
S
Q
q
1.24519 w
2 J
0 j
10 M
268 310.2 m
267.9 310.6 267.8 311 267.7 311.4 c
S
Q
q
1.24519 w
2 J
0 j
10 M
267.5 312.6 m
267.4 313.1 267.4 313.5 267.3 313.9 c
S
Q
q
1.24519 w
2 J
0 j
10 M
267.1 315.1 m
267.1 315.5 267 315.9 267 316.3 c
S
Q
q
1.24519 w
2 J
0 j
10 M
266.9 317.5 m
266.8 318 266.8 318.4 266.7 318.8 c
S
Q
q
1.24519 w
2 J
0 j
10 M
266.6 320 m
266.6 320.4 266.6 320.9 266.5 321.3 c
S
Q
q
1.24519 w
2 J
0 j
10 M
266.5 322.5 m
266.5 323 266.5 323.4 266.4 323.8 c
S
Q
q
1.24519 w
2 J
0 j
10 M
266.4 325 m
266.4 325.4 266.4 325.8 266.4 326.1 c
266.4 326.2 266.4 326.3 266.4 326.3 c
S
Q
q
1.24519 w
2 J
0 j
10 M
266.4 327.6 m
266.4 328 266.4 328.5 266.5 328.9 c
S
Q
q
1.24519 w
2 J
0 j
10 M
266.5 330.1 m
266.5 330.5 266.5 331 266.6 331.4 c
S
Q
q
1.24519 w
2 J
0 j
10 M
266.7 332.6 m
266.7 333 266.7 333.4 266.8 333.9 c
S
Q
q
1.24519 w
2 J
0 j
10 M
266.9 335.1 m
266.9 335.5 267 335.9 267 336.3 c
S
Q
q
1.24519 w
2 J
0 j
10 M
267.2 337.5 m
267.3 337.9 267.3 338.3 267.4 338.8 c
S
Q
q
1.24519 w
2 J
0 j
10 M
267.6 340 m
267.6 340.4 267.7 340.8 267.8 341.3 c
S
Q
q
1.24519 w
2 J
0 j
10 M
268 342.5 m
268.1 342.9 268.2 343.3 268.3 343.7 c
S
Q
q
1.24519 w
2 J
0 j
10 M
268.6 344.9 m
268.7 345.3 268.8 345.7 268.9 346.1 c
S
Q
q
1.24519 w
2 J
0 j
10 M
269.2 347.3 m
269.3 347.7 269.4 348.1 269.5 348.5 c
S
Q
q
1.24519 w
2 J
0 j
10 M
269.9 349.7 m
270 350.1 270.2 350.5 270.3 350.9 c
S
Q
q
1.24519 w
2 J
0 j
10 M
270.7 352.1 m
270.8 352.5 271 352.9 271.1 353.3 c
S
Q
q
1.24519 w
2 J
0 j
10 M
271.6 354.4 m
271.7 354.8 271.8 355.2 272 355.6 c
S
Q
q
1.24519 w
2 J
0 j
10 M
272.5 356.8 m
272.6 357.1 272.8 357.5 273 357.9 c
S
Q
q
1.24519 w
2 J
0 j
10 M
273.5 359 m
273.7 359.4 273.9 359.8 274 360.1 c
S
Q
q
1.24519 w
2 J
0 j
10 M
274.6 361.3 m
274.8 361.6 275 362 275.2 362.4 c
S
Q
q
1.24519 w
2 J
0 j
10 M
275.8 363.5 m
276 363.9 276.2 364.2 276.3 364.6 c
S
Q
q
1.24519 w
2 J
0 j
10 M
277 365.7 m
277.2 366 277.4 366.4 277.6 366.7 c
S
Q
q
1.24519 w
2 J
0 j
10 M
278.3 367.8 m
278.5 368.1 278.7 368.5 279 368.8 c
S
Q
q
1.24519 w
2 J
0 j
10 M
279.7 369.8 m
279.9 370.2 280.1 370.5 280.4 370.9 c
S
Q
q
1.24519 w
2 J
0 j
10 M
281.1 371.9 m
281.4 372.2 281.6 372.5 281.9 372.9 c
S
Q
q
1.24519 w
2 J
0 j
10 M
282.6 373.9 m
282.9 374.2 283.2 374.5 283.4 374.8 c
S
Q
q
1.24519 w
2 J
0 j
10 M
284.2 375.8 m
284.5 376.1 284.8 376.4 285.1 376.7 c
S
Q
q
1.24519 w
2 J
0 j
10 M
285.9 377.7 m
286.2 377.9 286.5 378.3 286.8 378.6 c
S
Q
q
1.24519 w
2 J
0 j
10 M
287.6 379.4 m
287.9 379.8 288.2 380 288.5 380.3 c
S
Q
q
1.24519 w
2 J
0 j
10 M
289.4 381.2 m
289.7 381.5 290 381.8 290.3 382.1 c
S
Q
q
1.24519 w
2 J
0 j
10 M
291.2 382.9 m
291.5 383.2 291.9 383.4 292.2 383.7 c
S
Q
q
1.24519 w
2 J
0 j
10 M
293.1 384.5 m
293.5 384.8 293.8 385 294.1 385.3 c
S
Q
q
1.24519 w
2 J
0 j
10 M
295.1 386.1 m
295.4 386.3 295.8 386.6 296.1 386.8 c
S
Q
q
1.24519 w
2 J
0 j
10 M
297.1 387.5 m
297.4 387.8 297.8 388 298.1 388.3 c
S
Q
q
1.24519 w
2 J
0 j
10 M
299.1 388.9 m
299.5 389.2 299.8 389.4 300.2 389.6 c
S
Q
q
1.24519 w
2 J
0 j
10 M
301.3 390.3 m
301.6 390.5 302 390.7 302.3 390.9 c
S
Q
q
1.24519 w
2 J
0 j
10 M
303.4 391.5 m
303.8 391.7 304.1 391.9 304.5 392.1 c
S
Q
q
1.24519 w
2 J
0 j
10 M
305.6 392.7 m
306 392.9 306.3 393.1 306.7 393.3 c
S
Q
q
1.24519 w
2 J
0 j
10 M
307.8 393.8 m
308.2 394 308.6 394.2 309 394.4 c
S
Q
q
1.24519 w
2 J
0 j
10 M
310.1 394.9 m
310.5 395.1 310.9 395.2 311.2 395.4 c
S
Q
q
1.24519 w
2 J
0 j
10 M
312.4 395.9 m
312.8 396 313.2 396.1 313.6 396.3 c
S
Q
q
1.24519 w
2 J
0 j
10 M
314.8 396.7 m
315.2 396.9 315.6 397 315.9 397.1 c
S
Q
q
1.24519 w
2 J
0 j
10 M
317.1 397.5 m
317.5 397.6 317.9 397.8 318.3 397.9 c
S
Q
q
1.24519 w
2 J
0 j
10 M
319.5 398.2 m
319.9 398.4 320.3 398.5 320.7 398.6 c
S
Q
q
1.24519 w
2 J
0 j
10 M
321.9 398.9 m
322.3 399 322.7 399.1 323.1 399.2 c
S
Q
q
1.24519 w
2 J
0 j
10 M
324.3 399.4 m
324.7 399.5 325.2 399.6 325.6 399.7 c
S
Q
q
1.24519 w
2 J
0 j
10 M
326.8 399.9 m
327.2 400 327.6 400.1 328.1 400.1 c
S
Q
q
1.24519 w
2 J
0 j
10 M
329.3 400.3 m
329.7 400.4 330.1 400.4 330.5 400.5 c
S
Q
q
1.24519 w
2 J
0 j
10 M
331.7 400.6 m
332.1 400.7 332.5 400.7 333 400.8 c
S
Q
q
1.24519 w
2 J
0 j
10 M
334.2 400.9 m
334.6 400.9 335 400.9 335.4 401 c
S
Q
q
1.24519 w
2 J
0 j
10 M
336.7 401 m
337.1 401 337.5 401.1 337.9 401.1 c
S
Q
q
1.24519 w
2 J
0 j
10 M
339.2 401.1 m
339.6 401.1 340.1 401.1 340.5 401.1 c
S
Q
/DeviceRGB {} cs
[0 0 1] sc
271.7 398.3 m
275.5 398.3 l
277.1 396.7 l
277.1 392.9 l
275.5 391.2 l
271.7 391.2 l
270.1 392.9 l
270.1 396.7 l
271.7 398.3 l
h
f*
/DeviceRGB {} CS
[0 0 1] SC
q
0.7358 w
2 J
0 j
7.66129 M
271.7 398.3 m
275.5 398.3 l
277.1 396.7 l
277.1 392.9 l
275.5 391.2 l
271.7 391.2 l
270.1 392.9 l
270.1 396.7 l
271.7 398.3 l
h
S
Q
/DeviceRGB {} cs
[0 0 1] sc
423.3 399.8 m
427 399.8 l
428.7 398.2 l
428.7 394.4 l
427 392.8 l
423.3 392.8 l
421.7 394.4 l
421.7 398.2 l
423.3 399.8 l
h
f*
/DeviceRGB {} CS
[0 0 1] SC
q
0.7358 w
2 J
0 j
7.66129 M
423.3 399.8 m
427 399.8 l
428.7 398.2 l
428.7 394.4 l
427 392.8 l
423.3 392.8 l
421.7 394.4 l
421.7 398.2 l
423.3 399.8 l
h
S
Q
/DeviceRGB {} CS
[0 0 0] SC
q
2.0093 w
2 J
0 j
10 M
341 212.9 m
341 446.7 l
S
Q
/DeviceRGB {} cs
[0 0 0] sc
341 452.4 m
344 446.3 l
338 446.3 l
341 452.4 l
h
f*
/DeviceRGB {} CS
[0 0 0] SC
q
2.0093 w
2 J
0 j
10 M
213.4 325.5 m
469.1 325.5 l
S
Q
/DeviceRGB {} cs
[0 0 0] sc
474.7 325.5 m
468.7 322.5 l
468.7 328.5 l
474.7 325.5 l
h
f*
/DeviceRGB {} cs
[1 0 0] sc
345 386.9 m
348.7 386.9 l
350.4 385.3 l
350.4 381.5 l
348.7 379.9 l
345 379.9 l
343.4 381.5 l
343.4 385.3 l
345 386.9 l
h
f*
/DeviceRGB {} CS
[1 0 0] SC
q
0.7358 w
2 J
0 j
7.66129 M
345 386.9 m
348.7 386.9 l
350.4 385.3 l
350.4 381.5 l
348.7 379.9 l
345 379.9 l
343.4 381.5 l
343.4 385.3 l
345 386.9 l
h
S
Q
/DeviceRGB {} cs
[1 0 0] sc
299.7 358.8 m
303.5 358.8 l
305.1 357.2 l
305.1 353.4 l
303.5 351.8 l
299.7 351.8 l
298.1 353.4 l
298.1 357.2 l
299.7 358.8 l
h
f*
/DeviceRGB {} CS
[1 0 0] SC
q
0.7358 w
2 J
0 j
7.66129 M
299.7 358.8 m
303.5 358.8 l
305.1 357.2 l
305.1 353.4 l
303.5 351.8 l
299.7 351.8 l
298.1 353.4 l
298.1 357.2 l
299.7 358.8 l
h
S
Q
/DeviceRGB {} cs
[1 0 0] sc
311.7 315.8 m
315.5 315.8 l
317.1 314.2 l
317.1 310.4 l
315.5 308.7 l
311.7 308.7 l
310.1 310.4 l
310.1 314.2 l
311.7 315.8 l
h
f*
/DeviceRGB {} CS
[1 0 0] SC
q
0.7358 w
2 J
0 j
7.66129 M
311.7 315.8 m
315.5 315.8 l
317.1 314.2 l
317.1 310.4 l
315.5 308.7 l
311.7 308.7 l
310.1 310.4 l
310.1 314.2 l
311.7 315.8 l
h
S
Q
/DeviceRGB {} cs
[1 0 0] sc
353.7 278.3 m
357.5 278.3 l
359.1 276.7 l
359.1 272.9 l
357.5 271.2 l
353.7 271.2 l
352.1 272.9 l
352.1 276.7 l
353.7 278.3 l
h
f*
/DeviceRGB {} CS
[1 0 0] SC
q
0.7358 w
2 J
0 j
7.66129 M
353.7 278.3 m
357.5 278.3 l
359.1 276.7 l
359.1 272.9 l
357.5 271.2 l
353.7 271.2 l
352.1 272.9 l
352.1 276.7 l
353.7 278.3 l
h
S
Q
/DeviceRGB {} cs
[1 0 0] sc
320.7 383.3 m
324.5 383.3 l
326.1 381.7 l
326.1 377.9 l
324.5 376.2 l
320.7 376.2 l
319.1 377.9 l
319.1 381.7 l
320.7 383.3 l
h
f*
/DeviceRGB {} CS
[1 0 0] SC
q
0.7358 w
2 J
0 j
7.66129 M
320.7 383.3 m
324.5 383.3 l
326.1 381.7 l
326.1 377.9 l
324.5 376.2 l
320.7 376.2 l
319.1 377.9 l
319.1 381.7 l
320.7 383.3 l
h
S
Q
/DeviceRGB {} cs
[1 0 0] sc
281.7 333.8 m
285.5 333.8 l
287.1 332.2 l
287.1 328.4 l
285.5 326.7 l
281.7 326.7 l
280.1 328.4 l
280.1 332.2 l
281.7 333.8 l
h
f*
/DeviceRGB {} CS
[1 0 0] SC
q
0.7358 w
2 J
0 j
7.66129 M
281.7 333.8 m
285.5 333.8 l
287.1 332.2 l
287.1 328.4 l
285.5 326.7 l
281.7 326.7 l
280.1 328.4 l
280.1 332.2 l
281.7 333.8 l
h
S
Q
/DeviceRGB {} cs
[1 0 0] sc
314.8 275.3 m
318.5 275.3 l
320.1 273.7 l
320.1 269.9 l
318.5 268.3 l
314.8 268.3 l
313.1 269.9 l
313.1 273.7 l
314.8 275.3 l
h
f*
/DeviceRGB {} CS
[1 0 0] SC
q
0.7358 w
2 J
0 j
7.66129 M
314.8 275.3 m
318.5 275.3 l
320.1 273.7 l
320.1 269.9 l
318.5 268.3 l
314.8 268.3 l
313.1 269.9 l
313.1 273.7 l
314.8 275.3 l
h
S
Q
/DeviceRGB {} cs
[1 0 0] sc
353.7 351.8 m
357.5 351.8 l
359.1 350.2 l
359.1 346.4 l
357.5 344.7 l
353.7 344.7 l
352.1 346.4 l
352.1 350.2 l
353.7 351.8 l
h
f*
/DeviceRGB {} CS
[1 0 0] SC
q
0.7358 w
2 J
0 j
7.66129 M
353.7 351.8 m
357.5 351.8 l
359.1 350.2 l
359.1 346.4 l
357.5 344.7 l
353.7 344.7 l
352.1 346.4 l
352.1 350.2 l
353.7 351.8 l
h
S
Q
/DeviceRGB {} cs
[0 0 1] sc
424.7 352.8 m
428.5 352.8 l
430.1 351.2 l
430.1 347.4 l
428.5 345.7 l
424.7 345.7 l
423.1 347.4 l
423.1 351.2 l
424.7 352.8 l
h
f*
/DeviceRGB {} CS
[0 0 1] SC
q
0.7358 w
2 J
0 j
7.66129 M
424.7 352.8 m
428.5 352.8 l
430.1 351.2 l
430.1 347.4 l
428.5 345.7 l
424.7 345.7 l
423.1 347.4 l
423.1 351.2 l
424.7 352.8 l
h
S
Q
/DeviceRGB {} cs
[0 0 1] sc
413.7 257.3 m
417.5 257.3 l
419.1 255.7 l
419.1 251.9 l
417.5 250.2 l
413.7 250.2 l
412.1 251.9 l
412.1 255.7 l
413.7 257.3 l
h
f*
/DeviceRGB {} CS
[0 0 1] SC
q
0.7358 w
2 J
0 j
7.66129 M
413.7 257.3 m
417.5 257.3 l
419.1 255.7 l
419.1 251.9 l
417.5 250.2 l
413.7 250.2 l
412.1 251.9 l
412.1 255.7 l
413.7 257.3 l
h
S
Q
/DeviceRGB {} cs
[0 0 1] sc
236.7 342.8 m
240.5 342.8 l
242.1 341.1 l
242.1 337.4 l
240.5 335.7 l
236.7 335.7 l
235.1 337.4 l
235.1 341.1 l
236.7 342.8 l
h
f*
/DeviceRGB {} CS
[0 0 1] SC
q
0.7358 w
2 J
0 j
7.66129 M
236.7 342.8 m
240.5 342.8 l
242.1 341.1 l
242.1 337.4 l
240.5 335.7 l
236.7 335.7 l
235.1 337.4 l
235.1 341.1 l
236.7 342.8 l
h
S
Q
/DeviceRGB {} cs
[0 0 1] sc
355.7 228.3 m
359.5 228.3 l
361.1 226.7 l
361.1 222.9 l
359.5 221.2 l
355.7 221.2 l
354.1 222.9 l
354.1 226.7 l
355.7 228.3 l
h
f*
/DeviceRGB {} CS
[0 0 1] SC
q
0.7358 w
2 J
0 j
7.66129 M
355.7 228.3 m
359.5 228.3 l
361.1 226.7 l
361.1 222.9 l
359.5 221.2 l
355.7 221.2 l
354.1 222.9 l
354.1 226.7 l
355.7 228.3 l
h
S
Q
/DeviceRGB {} cs
[0 0 1] sc
431.7 294.8 m
435.5 294.8 l
437.1 293.2 l
437.1 289.4 l
435.5 287.7 l
431.7 287.7 l
430.1 289.4 l
430.1 293.2 l
431.7 294.8 l
h
f*
/DeviceRGB {} CS
[0 0 1] SC
q
0.7358 w
2 J
0 j
7.66129 M
431.7 294.8 m
435.5 294.8 l
437.1 293.2 l
437.1 289.4 l
435.5 287.7 l
431.7 287.7 l
430.1 289.4 l
430.1 293.2 l
431.7 294.8 l
h
S
Q
/DeviceRGB {} cs
[0 0 1] sc
279.2 252.3 m
283 252.3 l
284.6 250.7 l
284.6 246.9 l
283 245.3 l
279.2 245.3 l
277.6 246.9 l
277.6 250.7 l
279.2 252.3 l
h
f*
/DeviceRGB {} CS
[0 0 1] SC
q
0.7358 w
2 J
0 j
7.66129 M
279.2 252.3 m
283 252.3 l
284.6 250.7 l
284.6 246.9 l
283 245.3 l
279.2 245.3 l
277.6 246.9 l
277.6 250.7 l
279.2 252.3 l
h
S
Q
/DeviceRGB {} cs
[0 0 1] sc
254.7 290.3 m
258.5 290.3 l
260.1 288.7 l
260.1 284.9 l
258.5 283.2 l
254.7 283.2 l
253.1 284.9 l
253.1 288.7 l
254.7 290.3 l
h
f*
/DeviceRGB {} CS
[0 0 1] SC
q
0.7358 w
2 J
0 j
7.66129 M
254.7 290.3 m
258.5 290.3 l
260.1 288.7 l
260.1 284.9 l
258.5 283.2 l
254.7 283.2 l
253.1 284.9 l
253.1 288.7 l
254.7 290.3 l
h
S
Q
/DeviceRGB {} cs
[0 0 1] sc
259.2 410.2 m
263 410.2 l
264.6 408.6 l
264.6 404.9 l
263 403.2 l
259.2 403.2 l
257.6 404.9 l
257.6 408.6 l
259.2 410.2 l
h
f*
/DeviceRGB {} CS
[0 0 1] SC
q
0.7358 w
2 J
0 j
7.66129 M
259.2 410.2 m
263 410.2 l
264.6 408.6 l
264.6 404.9 l
263 403.2 l
259.2 403.2 l
257.6 404.9 l
257.6 408.6 l
259.2 410.2 l
h
S
Q
/DeviceRGB {} cs
[1 0 0] sc
377 320.9 m
380.7 320.9 l
382.4 319.2 l
382.4 315.5 l
380.7 313.9 l
377 313.9 l
375.4 315.5 l
375.4 319.2 l
377 320.9 l
h
f*
/DeviceRGB {} CS
[1 0 0] SC
q
0.7358 w
2 J
0 j
7.66129 M
377 320.9 m
380.7 320.9 l
382.4 319.2 l
382.4 315.5 l
380.7 313.9 l
377 313.9 l
375.4 315.5 l
375.4 319.2 l
377 320.9 l
h
S
Q
/DeviceRGB {} cs
[1 0 0] sc
347 310.4 m
350.7 310.4 l
352.4 308.8 l
352.4 305 l
350.7 303.4 l
347 303.4 l
345.3 305 l
345.3 308.8 l
347 310.4 l
h
f*
/DeviceRGB {} CS
[1 0 0] SC
q
0.7358 w
2 J
0 j
7.66129 M
347 310.4 m
350.7 310.4 l
352.4 308.8 l
352.4 305 l
350.7 303.4 l
347 303.4 l
345.3 305 l
345.3 308.8 l
347 310.4 l
h
S
Q
/DeviceRGB {} cs
[0 0 1] sc
369.5 407.9 m
373.2 407.9 l
374.9 406.3 l
374.9 402.5 l
373.2 400.9 l
369.5 400.9 l
367.9 402.5 l
367.9 406.3 l
369.5 407.9 l
h
f*
/DeviceRGB {} CS
[0 0 1] SC
q
0.7358 w
2 J
0 j
7.66129 M
369.5 407.9 m
373.2 407.9 l
374.9 406.3 l
374.9 402.5 l
373.2 400.9 l
369.5 400.9 l
367.9 402.5 l
367.9 406.3 l
369.5 407.9 l
h
S
Q
/DeviceRGB {} CS
[0 0 0] SC
q
1.24519 w
2 J
0 j
10 M
340.1 401.1 m
340.6 401.1 341 401.1 341.4 401.1 c
S
Q
q
1.24519 w
2 J
0 j
10 M
342.7 401.1 m
343.1 401.1 343.5 401.1 343.9 401 c
S
Q
q
1.24519 w
2 J
0 j
10 M
345.2 401 m
345.6 401 346 400.9 346.4 400.9 c
S
Q
q
1.24519 w
2 J
0 j
10 M
347.7 400.8 m
348.1 400.7 348.5 400.7 348.9 400.6 c
S
Q
q
1.24519 w
2 J
0 j
10 M
350.1 400.5 m
350.5 400.5 351 400.4 351.4 400.3 c
S
Q
q
1.24519 w
2 J
0 j
10 M
352.6 400.2 m
353 400.1 353.4 400 353.8 399.9 c
S
Q
q
1.24519 w
2 J
0 j
10 M
355.1 399.7 m
355.5 399.6 355.9 399.6 356.3 399.5 c
S
Q
q
1.24519 w
2 J
0 j
10 M
357.5 399.2 m
357.9 399.1 358.3 399 358.7 398.9 c
S
Q
q
1.24519 w
2 J
0 j
10 M
359.9 398.6 m
360.3 398.5 360.7 398.4 361.1 398.3 c
S
Q
q
1.24519 w
2 J
0 j
10 M
362.3 397.9 m
362.7 397.8 363.1 397.7 363.5 397.6 c
S
Q
q
1.24519 w
2 J
0 j
10 M
364.7 397.2 m
365.1 397 365.5 396.9 365.9 396.8 c
S
Q
q
1.24519 w
2 J
0 j
10 M
367.1 396.3 m
367.5 396.2 367.8 396.1 368.2 395.9 c
S
Q
q
1.24519 w
2 J
0 j
10 M
369.4 395.4 m
369.8 395.3 370.1 395.1 370.5 395 c
S
Q
q
1.24519 w
2 J
0 j
10 M
371.7 394.4 m
372 394.3 372.4 394.1 372.8 393.9 c
S
Q
q
1.24519 w
2 J
0 j
10 M
373.9 393.4 m
374.3 393.2 374.7 393 375 392.8 c
S
Q
q
1.24519 w
2 J
0 j
10 M
376.1 392.2 m
376.5 392 376.9 391.8 377.2 391.6 c
S
Q
q
1.24519 w
2 J
0 j
10 M
378.3 391 m
378.7 390.8 379 390.6 379.4 390.4 c
S
Q
q
1.24519 w
2 J
0 j
10 M
380.4 389.7 m
380.8 389.5 381.1 389.3 381.5 389 c
S
Q
q
1.24519 w
2 J
0 j
10 M
382.5 388.3 m
382.9 388.1 383.2 387.9 383.6 387.6 c
S
Q
q
1.24519 w
2 J
0 j
10 M
384.5 386.9 m
384.9 386.6 385.2 386.4 385.5 386.1 c
S
Q
q
1.24519 w
2 J
0 j
10 M
386.5 385.4 m
386.9 385.1 387.2 384.9 387.5 384.6 c
S
Q
q
1.24519 w
2 J
0 j
10 M
388.5 383.8 m
388.8 383.5 389.1 383.2 389.4 383 c
S
Q
q
1.24519 w
2 J
0 j
10 M
390.4 382.1 m
390.6 381.9 391 381.6 391.3 381.3 c
S
Q
q
1.24519 w
2 J
0 j
10 M
392.2 380.4 m
392.5 380.2 392.8 379.8 393.1 379.6 c
S
Q
q
1.24519 w
2 J
0 j
10 M
393.9 378.7 m
394.2 378.4 394.5 378.1 394.8 377.7 c
S
Q
q
1.24519 w
2 J
0 j
10 M
395.6 376.8 m
395.9 376.5 396.2 376.2 396.4 375.9 c
S
Q
q
1.24519 w
2 J
0 j
10 M
397.2 374.9 m
397.5 374.6 397.8 374.3 398 374 c
S
Q
q
1.24519 w
2 J
0 j
10 M
398.8 373 m
399.1 372.7 399.3 372.3 399.5 372 c
S
Q
q
1.24519 w
2 J
0 j
10 M
400.3 371 m
400.5 370.7 400.8 370.3 401 370 c
S
Q
q
1.24519 w
2 J
0 j
10 M
401.7 369 m
402 368.6 402.2 368.2 402.4 367.9 c
S
Q
q
1.24519 w
2 J
0 j
10 M
403.1 366.9 m
403.3 366.5 403.5 366.2 403.7 365.8 c
S
Q
q
1.24519 w
2 J
0 j
10 M
404.3 364.7 m
404.6 364.3 404.8 364 405 363.6 c
S
Q
q
1.24519 w
2 J
0 j
10 M
405.6 362.5 m
405.8 362.2 405.9 361.8 406.1 361.4 c
S
Q
q
1.24519 w
2 J
0 j
10 M
406.7 360.3 m
406.9 359.9 407 359.5 407.2 359.2 c
S
Q
q
1.24519 w
2 J
0 j
10 M
407.7 358 m
407.9 357.6 408 357.3 408.2 356.9 c
S
Q
q
1.24519 w
2 J
0 j
10 M
408.7 355.7 m
408.9 355.4 409 355 409.2 354.6 c
S
Q
q
1.24519 w
2 J
0 j
10 M
409.6 353.4 m
409.7 353 409.9 352.6 410 352.2 c
S
Q
q
1.24519 w
2 J
0 j
10 M
410.4 351 m
410.6 350.6 410.7 350.2 410.8 349.9 c
S
Q
q
1.24519 w
2 J
0 j
10 M
411.2 348.7 m
411.3 348.3 411.4 347.9 411.5 347.5 c
S
Q
q
1.24519 w
2 J
0 j
10 M
411.8 346.3 m
411.9 345.9 412 345.5 412.1 345.1 c
S
Q
q
1.24519 w
2 J
0 j
10 M
412.4 343.9 m
412.5 343.4 412.6 343 412.7 342.6 c
S
Q
q
1.24519 w
2 J
0 j
10 M
412.9 341.4 m
413 341 413.1 340.6 413.1 340.2 c
S
Q
q
1.24519 w
2 J
0 j
10 M
413.4 338.9 m
413.4 338.5 413.5 338.1 413.5 337.7 c
S
Q
q
1.24519 w
2 J
0 j
10 M
413.7 336.5 m
413.8 336.1 413.8 335.7 413.9 335.3 c
S
Q
q
1.24519 w
2 J
0 j
10 M
414 334 m
414 333.6 414.1 333.2 414.1 332.8 c
S
Q
q
1.24519 w
2 J
0 j
10 M
414.2 331.5 m
414.2 331.1 414.3 330.7 414.3 330.3 c
S
Q
q
1.24519 w
2 J
0 j
10 M
414.3 329 m
414.3 328.6 414.3 328.2 414.3 327.7 c
S
Q
q
1.24519 w
2 J
0 j
10 M
414.4 326.5 m
414.4 326.4 414.4 326.2 414.4 326.1 c
414.4 325.8 414.4 325.5 414.4 325.2 c
S
Q
q
1.24519 w
2 J
0 j
10 M
414.3 323.9 m
414.3 323.5 414.3 323.1 414.3 322.7 c
S
Q
q
1.24519 w
2 J
0 j
10 M
414.2 321.4 m
414.2 321 414.2 320.6 414.1 320.2 c
S
Q
q
1.24519 w
2 J
0 j
10 M
414.1 318.9 m
414 318.5 414 318.1 413.9 317.7 c
S
Q
q
1.24519 w
2 J
0 j
10 M
413.8 316.5 m
413.7 316.1 413.7 315.6 413.7 315.2 c
S
Q
q
1.24519 w
2 J
0 j
10 M
413.5 314 m
413.4 313.6 413.3 313.2 413.3 312.8 c
S
Q
q
1.24519 w
2 J
0 j
10 M
413.1 311.6 m
413 311.1 412.9 310.7 412.8 310.3 c
S
Q
q
1.24519 w
2 J
0 j
10 M
412.6 309.1 m
412.5 308.7 412.4 308.3 412.3 307.9 c
S
Q
q
1.24519 w
2 J
0 j
10 M
412 306.7 m
411.9 306.3 411.8 305.8 411.7 305.4 c
S
Q
q
1.24519 w
2 J
0 j
10 M
411.4 304.2 m
411.3 303.8 411.1 303.4 411 303.1 c
S
Q
q
1.24519 w
2 J
0 j
10 M
410.7 301.9 m
410.5 301.5 410.4 301.1 410.3 300.7 c
S
Q
q
1.24519 w
2 J
0 j
10 M
409.8 299.5 m
409.7 299.1 409.5 298.7 409.4 298.3 c
S
Q
q
1.24519 w
2 J
0 j
10 M
409 297.2 m
408.8 296.8 408.6 296.4 408.5 296 c
S
Q
q
1.24519 w
2 J
0 j
10 M
408 294.9 m
407.8 294.5 407.7 294.1 407.5 293.7 c
S
Q
q
1.24519 w
2 J
0 j
10 M
407 292.6 m
406.8 292.2 406.6 291.9 406.4 291.5 c
S
Q
q
1.24519 w
2 J
0 j
10 M
405.9 290.4 m
405.7 290 405.5 289.6 405.3 289.2 c
S
Q
q
1.24519 w
2 J
0 j
10 M
404.7 288.1 m
404.5 287.8 404.3 287.4 404.1 287.1 c
S
Q
q
1.24519 w
2 J
0 j
10 M
403.4 286 m
403.2 285.6 403 285.3 402.8 284.9 c
S
Q
q
1.24519 w
2 J
0 j
10 M
402.1 283.9 m
401.9 283.5 401.6 283.2 401.4 282.8 c
S
Q
q
1.24519 w
2 J
0 j
10 M
400.7 281.8 m
400.5 281.5 400.2 281.2 400 280.8 c
S
Q
q
1.24519 w
2 J
0 j
10 M
399.2 279.8 m
399 279.5 398.7 279.2 398.5 278.8 c
S
Q
q
1.24519 w
2 J
0 j
10 M
397.7 277.9 m
397.4 277.5 397.2 277.2 396.9 276.9 c
S
Q
q
1.24519 w
2 J
0 j
10 M
396.1 276 m
395.8 275.6 395.5 275.3 395.2 275 c
S
Q
q
1.24519 w
2 J
0 j
10 M
394.4 274.1 m
394.1 273.8 393.8 273.5 393.5 273.2 c
S
Q
q
1.24519 w
2 J
0 j
10 M
392.7 272.3 m
392.4 272 392.1 271.7 391.8 271.4 c
S
Q
q
1.24519 w
2 J
0 j
10 M
390.9 270.6 m
390.6 270.3 390.2 270 389.9 269.7 c
S
Q
q
1.24519 w
2 J
0 j
10 M
389 268.9 m
388.7 268.6 388.4 268.4 388.1 268.1 c
S
Q
q
1.24519 w
2 J
0 j
10 M
387.1 267.3 m
386.8 267.1 386.4 266.8 386.1 266.5 c
S
Q
q
1.24519 w
2 J
0 j
10 M
385.1 265.8 m
384.8 265.5 384.4 265.3 384.1 265 c
S
Q
q
1.24519 w
2 J
0 j
10 M
383.1 264.3 m
382.8 264.1 382.4 263.8 382.1 263.6 c
S
Q
q
1.24519 w
2 J
0 j
10 M
381 262.9 m
380.7 262.7 380.3 262.5 380 262.3 c
S
Q
q
1.24519 w
2 J
0 j
10 M
378.9 261.6 m
378.6 261.4 378.2 261.2 377.8 261 c
S
Q
q
1.24519 w
2 J
0 j
10 M
376.8 260.4 m
376.4 260.2 376 260 375.6 259.8 c
S
Q
q
1.24519 w
2 J
0 j
10 M
374.5 259.2 m
374.2 259 373.8 258.8 373.4 258.6 c
S
Q
q
1.24519 w
2 J
0 j
10 M
372.3 258.1 m
371.9 257.9 371.5 257.8 371.2 257.6 c
S
Q
q
1.24519 w
2 J
0 j
10 M
370 257.1 m
369.6 256.9 369.3 256.8 368.9 256.6 c
S
Q
q
1.24519 w
2 J
0 j
10 M
367.7 256.1 m
367.3 256 366.9 255.9 366.5 255.7 c
S
Q
q
1.24519 w
2 J
0 j
10 M
365.4 255.3 m
365 255.1 364.6 255 364.2 254.9 c
S
Q
q
1.24519 w
2 J
0 j
10 M
363 254.5 m
362.6 254.4 362.2 254.3 361.8 254.2 c
S
Q
q
1.24519 w
2 J
0 j
10 M
360.6 253.8 m
360.2 253.7 359.8 253.6 359.4 253.5 c
S
Q
q
1.24519 w
2 J
0 j
10 M
358.2 253.2 m
357.8 253.1 357.4 253 357 252.9 c
S
Q
q
1.24519 w
2 J
0 j
10 M
355.7 252.7 m
355.3 252.6 354.9 252.5 354.5 252.4 c
S
Q
q
1.24519 w
2 J
0 j
10 M
353.3 252.2 m
352.9 252.1 352.4 252.1 352 252 c
S
Q
q
1.24519 w
2 J
0 j
10 M
350.8 251.8 m
350.4 251.8 350 251.7 349.6 251.7 c
S
Q
q
1.24519 w
2 J
0 j
10 M
348.3 251.5 m
348 251.5 347.5 251.5 347.1 251.4 c
S
Q
q
1.24519 w
2 J
0 j
10 M
345.9 251.3 m
345.5 251.3 345.1 251.3 344.6 251.2 c
S
Q
q
1.24519 w
2 J
0 j
10 M
343.4 251.2 m
343 251.2 342.5 251.1 342.1 251.1 c
S
Q
q
1.24519 w
2 J
0 j
10 M
340.8 251.1 m
340.6 251.1 340.4 251.1 340.1 251.1 c
339.9 251.1 339.8 251.1 339.6 251.1 c
S
Q
q
1.24519 w
2 J
0 j
10 M
338.3 251.1 m
337.9 251.1 337.5 251.2 337 251.2 c
S
Q
q
1.24519 w
2 J
0 j
10 M
335.8 251.2 m
335.4 251.3 334.9 251.3 334.5 251.3 c
S
Q
q
1.24519 w
2 J
0 j
10 M
333.3 251.4 m
332.9 251.5 332.4 251.5 332.1 251.5 c
S
Q
q
1.24519 w
2 J
0 j
10 M
330.8 251.7 m
330.4 251.7 330 251.8 329.6 251.8 c
S
Q
q
1.24519 w
2 J
0 j
10 M
328.4 252 m
328 252.1 327.5 252.1 327.1 252.2 c
S
Q
q
1.24519 w
2 J
0 j
10 M
325.9 252.4 m
325.5 252.5 325.1 252.6 324.7 252.7 c
S
Q
q
1.24519 w
2 J
0 j
10 M
323.4 252.9 m
323 253 322.6 253.1 322.2 253.2 c
S
Q
q
1.24519 w
2 J
0 j
10 M
321 253.5 m
320.6 253.6 320.2 253.7 319.8 253.8 c
S
Q
q
1.24519 w
2 J
0 j
10 M
318.6 254.1 m
318.2 254.2 317.8 254.4 317.4 254.5 c
S
Q
q
1.24519 w
2 J
0 j
10 M
316.2 254.8 m
315.8 255 315.4 255.1 315 255.2 c
S
Q
q
1.24519 w
2 J
0 j
10 M
313.9 255.7 m
313.5 255.8 313.1 255.9 312.7 256.1 c
S
Q
q
1.24519 w
2 J
0 j
10 M
311.5 256.6 m
311.1 256.7 310.8 256.9 310.4 257 c
S
Q
q
1.24519 w
2 J
0 j
10 M
309.2 257.5 m
308.8 257.7 308.5 257.9 308.1 258 c
S
Q
q
1.24519 w
2 J
0 j
10 M
307 258.6 m
306.6 258.7 306.2 258.9 305.9 259.1 c
S
Q
q
1.24519 w
2 J
0 j
10 M
304.8 259.7 m
304.4 259.9 304 260.1 303.6 260.3 c
S
Q
q
1.24519 w
2 J
0 j
10 M
302.6 260.9 m
302.2 261.1 301.8 261.3 301.5 261.5 c
S
Q
q
1.24519 w
2 J
0 j
10 M
300.4 262.2 m
300 262.4 299.7 262.6 299.4 262.8 c
S
Q
q
1.24519 w
2 J
0 j
10 M
298.3 263.5 m
298 263.8 297.6 264 297.3 264.2 c
S
Q
q
1.24519 w
2 J
0 j
10 M
296.3 265 m
295.9 265.2 295.6 265.4 295.3 265.7 c
S
Q
q
1.24519 w
2 J
0 j
10 M
294.3 266.4 m
294 266.7 293.6 266.9 293.3 267.2 c
S
Q
q
1.24519 w
2 J
0 j
10 M
292.3 268 m
292 268.3 291.7 268.5 291.4 268.8 c
S
Q
q
1.24519 w
2 J
0 j
10 M
290.4 269.6 m
290.1 269.9 289.8 270.2 289.5 270.5 c
S
Q
q
1.24519 w
2 J
0 j
10 M
288.6 271.3 m
288.3 271.6 288 271.9 287.7 272.2 c
S
Q
q
1.24519 w
2 J
0 j
10 M
286.8 273.1 m
286.5 273.4 286.2 273.7 286 274 c
S
Q
q
1.24519 w
2 J
0 j
10 M
285.1 274.9 m
284.9 275.2 284.6 275.5 284.3 275.8 c
S
Q
q
1.24519 w
2 J
0 j
10 M
283.5 276.8 m
283.2 277.1 282.9 277.4 282.7 277.7 c
S
Q
q
1.24519 w
2 J
0 j
10 M
281.9 278.7 m
281.6 279 281.4 279.4 281.1 279.7 c
S
Q
q
1.24519 w
2 J
0 j
10 M
280.4 280.7 m
280.1 281 279.9 281.4 279.6 281.7 c
S
Q
q
1.24519 w
2 J
0 j
10 M
278.9 282.7 m
278.7 283.1 278.5 283.4 278.2 283.7 c
S
Q
q
1.24519 w
2 J
0 j
10 M
277.6 284.8 m
277.3 285.2 277.1 285.5 276.9 285.9 c
S
Q
q
1.24519 w
2 J
0 j
10 M
276.3 287 m
276.1 287.3 275.8 287.7 275.6 288 c
S
Q
q
1.24519 w
2 J
0 j
10 M
275 289.1 m
274.8 289.5 274.6 289.8 274.5 290.2 c
S
Q
q
1.24519 w
2 J
0 j
10 M
273.9 291.3 m
273.7 291.7 273.5 292.1 273.3 292.5 c
S
Q
q
1.24519 w
2 J
0 j
10 M
272.8 293.6 m
272.6 294 272.5 294.3 272.3 294.7 c
S
Q
q
1.24519 w
2 J
0 j
10 M
271.8 295.9 m
271.7 296.2 271.5 296.6 271.4 297 c
S
Q
q
1.24519 w
2 J
0 j
10 M
270.9 298.2 m
270.7 298.6 270.6 299 270.5 299.4 c
S
Q
q
1.24519 w
2 J
0 j
10 M
270.1 300.5 m
269.9 301 269.8 301.4 269.7 301.7 c
S
Q
q
1.24519 w
2 J
0 j
10 M
269.3 302.9 m
269.1 303.3 269 303.7 268.9 304.1 c
S
Q
q
1.24519 w
2 J
0 j
10 M
268.6 305.3 m
268.5 305.7 268.4 306.1 268.3 306.5 c
S
Q
q
1.24519 w
2 J
0 j
10 M
268 307.7 m
267.9 308.1 267.8 308.5 267.7 308.9 c
S
Q
q
1.24519 w
2 J
0 j
10 M
267.4 310.2 m
267.4 310.6 267.3 311 267.2 311.4 c
S
Q
q
1.24519 w
2 J
0 j
10 M
267 312.6 m
266.9 313.1 266.9 313.5 266.8 313.9 c
S
Q
q
1.24519 w
2 J
0 j
10 M
266.6 315.1 m
266.6 315.5 266.5 315.9 266.5 316.3 c
S
Q
q
1.24519 w
2 J
0 j
10 M
266.3 317.5 m
266.3 318 266.3 318.4 266.2 318.8 c
S
Q
q
1.24519 w
2 J
0 j
10 M
266.1 320 m
266.1 320.4 266.1 320.9 266 321.3 c
S
Q
q
1.24519 w
2 J
0 j
10 M
266 322.5 m
265.9 323 265.9 323.4 265.9 323.8 c
S
Q
q
1.24519 w
2 J
0 j
10 M
265.9 325 m
265.9 325.4 265.9 325.8 265.9 326.1 c
265.9 326.2 265.9 326.3 265.9 326.3 c
S
Q
q
1.24519 w
2 J
0 j
10 M
265.9 327.6 m
265.9 328 265.9 328.5 265.9 328.9 c
S
Q
q
1.24519 w
2 J
0 j
10 M
266 330.1 m
266 330.5 266 331 266.1 331.4 c
S
Q
q
1.24519 w
2 J
0 j
10 M
266.1 332.6 m
266.2 333 266.2 333.4 266.3 333.9 c
S
Q
q
1.24519 w
2 J
0 j
10 M
266.4 335.1 m
266.4 335.5 266.5 335.9 266.5 336.3 c
S
Q
q
1.24519 w
2 J
0 j
10 M
266.7 337.5 m
266.7 337.9 266.8 338.3 266.9 338.8 c
S
Q
q
1.24519 w
2 J
0 j
10 M
267.1 340 m
267.1 340.4 267.2 340.8 267.3 341.3 c
S
Q
q
1.24519 w
2 J
0 j
10 M
267.5 342.5 m
267.6 342.9 267.7 343.3 267.8 343.7 c
S
Q
q
1.24519 w
2 J
0 j
10 M
268.1 344.9 m
268.2 345.3 268.3 345.7 268.4 346.1 c
S
Q
q
1.24519 w
2 J
0 j
10 M
268.7 347.3 m
268.8 347.7 268.9 348.1 269 348.5 c
S
Q
q
1.24519 w
2 J
0 j
10 M
269.4 349.7 m
269.5 350.1 269.7 350.5 269.8 350.9 c
S
Q
q
1.24519 w
2 J
0 j
10 M
270.2 352.1 m
270.3 352.5 270.5 352.9 270.6 353.3 c
S
Q
q
1.24519 w
2 J
0 j
10 M
271 354.4 m
271.2 354.8 271.3 355.2 271.5 355.6 c
S
Q
q
1.24519 w
2 J
0 j
10 M
272 356.8 m
272.1 357.1 272.3 357.5 272.5 357.9 c
S
Q
q
1.24519 w
2 J
0 j
10 M
273 359 m
273.1 359.4 273.3 359.8 273.5 360.1 c
S
Q
q
1.24519 w
2 J
0 j
10 M
274.1 361.3 m
274.3 361.6 274.5 362 274.6 362.4 c
S
Q
q
1.24519 w
2 J
0 j
10 M
275.2 363.5 m
275.4 363.9 275.6 364.2 275.8 364.6 c
S
Q
q
1.24519 w
2 J
0 j
10 M
276.5 365.7 m
276.7 366 276.9 366.4 277.1 366.7 c
S
Q
q
1.24519 w
2 J
0 j
10 M
277.8 367.8 m
278 368.1 278.2 368.5 278.5 368.8 c
S
Q
q
1.24519 w
2 J
0 j
10 M
279.2 369.8 m
279.4 370.2 279.6 370.5 279.9 370.9 c
S
Q
q
1.24519 w
2 J
0 j
10 M
280.6 371.9 m
280.9 372.2 281.1 372.5 281.4 372.9 c
S
Q
q
1.24519 w
2 J
0 j
10 M
282.1 373.9 m
282.4 374.2 282.7 374.5 282.9 374.8 c
S
Q
q
1.24519 w
2 J
0 j
10 M
283.7 375.8 m
284 376.1 284.3 376.4 284.5 376.7 c
S
Q
q
1.24519 w
2 J
0 j
10 M
285.4 377.7 m
285.7 377.9 286 378.3 286.2 378.6 c
S
Q
q
1.24519 w
2 J
0 j
10 M
287.1 379.4 m
287.4 379.8 287.7 380 288 380.3 c
S
Q
q
1.24519 w
2 J
0 j
10 M
288.9 381.2 m
289.2 381.5 289.5 381.8 289.8 382.1 c
S
Q
q
1.24519 w
2 J
0 j
10 M
290.7 382.9 m
291 383.2 291.3 383.4 291.7 383.7 c
S
Q
q
1.24519 w
2 J
0 j
10 M
292.6 384.5 m
293 384.8 293.3 385 293.6 385.3 c
S
Q
q
1.24519 w
2 J
0 j
10 M
294.6 386.1 m
294.9 386.3 295.3 386.6 295.6 386.8 c
S
Q
q
1.24519 w
2 J
0 j
10 M
296.6 387.5 m
296.9 387.8 297.3 388 297.6 388.3 c
S
Q
q
1.24519 w
2 J
0 j
10 M
298.6 388.9 m
299 389.2 299.3 389.4 299.7 389.6 c
S
Q
q
1.24519 w
2 J
0 j
10 M
300.8 390.3 m
301.1 390.5 301.5 390.7 301.8 390.9 c
S
Q
q
1.24519 w
2 J
0 j
10 M
302.9 391.5 m
303.3 391.7 303.6 391.9 304 392.1 c
S
Q
q
1.24519 w
2 J
0 j
10 M
305.1 392.7 m
305.5 392.9 305.8 393.1 306.2 393.3 c
S
Q
q
1.24519 w
2 J
0 j
10 M
307.3 393.8 m
307.7 394 308.1 394.2 308.5 394.4 c
S
Q
q
1.24519 w
2 J
0 j
10 M
309.6 394.9 m
310 395.1 310.4 395.2 310.7 395.4 c
S
Q
q
1.24519 w
2 J
0 j
10 M
311.9 395.9 m
312.3 396 312.7 396.1 313.1 396.3 c
S
Q
q
1.24519 w
2 J
0 j
10 M
314.2 396.7 m
314.6 396.9 315 397 315.4 397.1 c
S
Q
q
1.24519 w
2 J
0 j
10 M
316.6 397.5 m
317 397.6 317.4 397.8 317.8 397.9 c
S
Q
q
1.24519 w
2 J
0 j
10 M
319 398.2 m
319.4 398.4 319.8 398.5 320.2 398.6 c
S
Q
q
1.24519 w
2 J
0 j
10 M
321.4 398.9 m
321.8 399 322.2 399.1 322.6 399.2 c
S
Q
q
1.24519 w
2 J
0 j
10 M
323.8 399.4 m
324.2 399.5 324.7 399.6 325 399.7 c
S
Q
q
1.24519 w
2 J
0 j
10 M
326.3 399.9 m
326.7 400 327.1 400.1 327.5 400.1 c
S
Q
q
1.24519 w
2 J
0 j
10 M
328.8 400.3 m
329.2 400.4 329.6 400.4 330 400.5 c
S
Q
q
1.24519 w
2 J
0 j
10 M
331.2 400.6 m
331.6 400.7 332 400.7 332.4 400.8 c
S
Q
q
1.24519 w
2 J
0 j
10 M
333.7 400.9 m
334.1 400.9 334.5 400.9 334.9 401 c
S
Q
q
1.24519 w
2 J
0 j
10 M
336.2 401 m
336.6 401 337 401.1 337.4 401.1 c
S
Q
q
1.24519 w
2 J
0 j
10 M
338.7 401.1 m
339.1 401.1 339.6 401.1 340 401.1 c
S
Q
/DeviceRGB {} cs
[0 0 1] sc
271.2 398.3 m
275 398.3 l
276.6 396.7 l
276.6 392.9 l
275 391.2 l
271.2 391.2 l
269.6 392.9 l
269.6 396.7 l
271.2 398.3 l
h
f*
/DeviceRGB {} CS
[0 0 1] SC
q
0.7358 w
2 J
0 j
7.66129 M
271.2 398.3 m
275 398.3 l
276.6 396.7 l
276.6 392.9 l
275 391.2 l
271.2 391.2 l
269.6 392.9 l
269.6 396.7 l
271.2 398.3 l
h
S
Q
/DeviceRGB {} cs
[0 0 1] sc
422.8 399.8 m
426.5 399.8 l
428.1 398.2 l
428.1 394.4 l
426.5 392.8 l
422.8 392.8 l
421.1 394.4 l
421.1 398.2 l
422.8 399.8 l
h
f*
/DeviceRGB {} CS
[0 0 1] SC
q
0.7358 w
2 J
0 j
7.66129 M
422.8 399.8 m
426.5 399.8 l
428.1 398.2 l
428.1 394.4 l
426.5 392.8 l
422.8 392.8 l
421.1 394.4 l
421.1 398.2 l
422.8 399.8 l
h
S
Q
Q
Q
showpage
%%PageTrailer
pdfEndPage
%%Trailer
end
%%DocumentSuppliedResources:
%%Trailer
cleartomark
countdictstack
exch sub { end } repeat
restore
%%EOF
